Introduction to getLattes • getLattes
…
Publications

artigos_publicados <- 
    purrr::map(curriculos, safely(getArtigosPublicados)) |>
    purrr::map(pluck, 'result') |>
    dplyr::bind_rows() 

artigos_publicados |>
    dplyr::arrange(desc(ano_do_artigo)) |>
    dplyr::select(titulo_do_artigo, ano_do_artigo, titulo_do_periodico_ou_revista) 
#> # A tibble: 192 × 3
#>    titulo_do_artigo                         ano_do_artigo titulo_do_periodico_…¹
#>    <chr>                                    <chr>         <chr>                 
#>  1 An Analysis of Collaboration Networks i… 2021          REVISTA DE ADMINISTRA…
#>  2 Patent network analysis in agriculture:… 2021          ECONOMICS OF INNOVATI…
#>  3 GENETICALLY MODIFIED CORN ADOPTION IN B… 2021          REVISTA DE ECONOMIA E…
#>  4 International trade in GMOs: have marke… 2020          Revista de economia e…
#>  5 Governance and financial efficiency of … 2020          RAUSP Management Jour…
#>  6 The Role of Participation in the Respon… 2020          Sustainability        
#>  7 The impact of sugarcane expansion in Br… 2020          JOURNAL OF RURAL STUD…
#>  8 Innovation in GMOs, technological gap, … 2020          Agribusiness          
#>  9 Avaliação do Programa Nacional de Produ… 2020          Desenvolvimento em De…
#> 10 Agro brasileiro em evolução: complexida… 2020          Revista de Política A…
#> # ℹ 182 more rows
#> # ℹ abbreviated name: ¹​titulo_do_periodico_ou_revista
…
